<svg width="104" height="90" viewBox="0 0 104 90" fill="none" xmlns="http://www.w3.org/2000/svg">
<path fill-rule="evenodd" clip-rule="evenodd" d="M96.6856 24.7818C97.0939 25.7925 97.1878 26.8526 97.0156 27.852C98.9555 28.1037 100.716 29.3762 101.505 31.3306L101.857 32.2015C102.671 34.2155 102.24 36.4245 100.93 37.9603C101.876 38.616 102.651 39.5473 103.115 40.6964C104.263 43.5377 103.126 46.7378 100.575 48.2184C101.288 48.8338 101.871 49.6228 102.248 50.5563C103.504 53.6669 102.023 57.209 98.9457 58.4524L87.9657 62.8887C87.7625 62.9708 87.5576 63.0398 87.3514 63.0984C87.3408 63.1029 87.331 63.1085 87.3201 63.1129L77.9557 66.8964C74.3877 68.338 70.3909 68.4992 66.7012 67.3503L62.3061 65.9819L56.176 68.4587L56.4702 69.1869C56.8169 70.0452 56.41 71.0184 55.5608 71.3615L45.1557 75.5654L45.833 77.2417C46.1797 78.0998 45.7728 79.0732 44.9236 79.4163L19.0855 89.8556C18.2366 90.1986 17.2676 89.7813 16.9208 88.923L6.70671 63.6422C6.36002 62.7841 6.76712 61.8106 7.61605 61.4676C8.46498 61.1246 9.43402 61.5419 9.78079 62.4002L19.367 86.1269L42.1308 76.9298L41.4536 75.2535L28.0324 42.0349L27.3551 40.3586L4.59111 49.5559L7.68817 57.2214C8.03494 58.0797 7.62776 59.053 6.77883 59.396C5.9299 59.739 4.96086 59.3217 4.61409 58.4634L0.889331 49.2443C0.542642 48.3862 0.949534 47.4128 1.79867 47.0697L27.6366 36.6305C28.4855 36.2875 29.4545 36.7048 29.8013 37.5631L30.4786 39.2394L40.8837 35.0354C41.7326 34.6924 42.7016 35.1097 43.0484 35.968L43.5502 37.21L49.8907 34.6482C50.4259 34.0813 51.7671 32.6687 53.4377 30.9761C56.9144 27.4529 58.0945 23.5373 57.6461 17.0095C57.4841 14.6523 57.1188 12.1735 56.5597 9.6421L55.1444 3.23477C54.9683 2.43719 55.3878 1.63211 56.1373 1.3293C61.3929 -0.794118 64.7592 2.49379 66.6576 5.62628C67.7997 7.51048 68.6049 9.64123 69.0511 11.9596L72.0931 27.7682C72.3947 27.5685 72.7202 27.3958 73.0681 27.2553L89.0804 20.7859C91.9201 19.6385 95.1738 21.0401 96.3336 23.9107L96.6856 24.7818ZM95.2553 37.3102L97.5554 36.3809C98.7 35.9184 99.251 34.6007 98.7834 33.4438L98.4314 32.5727C97.9639 31.4156 96.6522 30.8507 95.5076 31.3131L93.6385 32.0683L77.6262 38.5377C76.4814 39.0002 75.9306 40.3178 76.398 41.4748L76.75 42.3459C77.2175 43.503 78.5292 44.068 79.6738 43.6055L80.1047 43.4314L95.2553 37.3102ZM90.3359 23.8935C91.4805 23.4311 92.7922 23.996 93.2597 25.1531L93.6117 26.0243C94.0791 27.1812 93.5283 28.4989 92.3835 28.9614L76.3712 35.4308C75.2266 35.8932 73.9149 35.3283 73.4474 34.1711L73.11 33.336C73.058 32.9182 73.0024 32.529 72.9467 32.1743C73.0423 31.3882 73.545 30.6777 74.3237 30.3631L90.3359 23.8935ZM62.7018 62.6101L67.6601 64.1537C70.6241 65.0764 73.8345 64.947 76.7002 63.7897L81.6983 61.7703C81.0222 61.1656 80.4691 60.401 80.1062 59.5028C79.4567 57.8952 79.5398 56.1733 80.1954 54.712C78.709 54.1164 77.4528 52.9356 76.8033 51.328C76.1801 49.7853 76.2309 48.1368 76.8153 46.7149C75.4397 46.1661 74.277 45.075 73.6764 43.5884L73.3244 42.7173C73.2107 42.4358 73.1223 42.1504 73.056 41.8639C72.1178 47.7332 69.1544 51.817 64.3968 53.7392C63.548 54.0821 62.5788 53.6649 62.232 52.8066C61.8852 51.9483 62.2924 50.9749 63.1414 50.6319C70.3159 47.7333 70.4073 38.9376 69.8497 34.0518C69.6786 33.4844 69.6004 32.9075 69.6093 32.3393C69.4413 31.3378 69.2884 30.7207 69.2806 30.6902C69.2719 30.6569 69.2644 30.6231 69.258 30.5896L65.791 12.5735C65.4212 10.6508 64.7603 8.89535 63.8271 7.35568C62.2766 4.79739 60.6982 3.75392 58.7228 4.05742L59.8009 8.93859C60.396 11.6332 60.7857 14.279 60.9591 16.8031C61.475 24.3174 59.9808 29.1098 55.8009 33.3449C53.7417 35.4317 52.1939 37.0821 52.0728 37.2113L52.0652 37.2193C51.9018 37.3943 51.7022 37.5313 51.4804 37.6209L44.806 40.3175L51.0278 55.7172L51.0279 55.7174C51.3746 56.5755 50.9677 57.5489 50.1186 57.892C49.2696 58.235 48.3006 57.8177 47.9538 56.9594L47.9537 56.9592L41.1041 40.0057L40.6023 38.7638L31.7343 42.3467L43.9001 72.4583L52.7682 68.8754L52.474 68.1472L50.0461 62.1381C49.6994 61.2798 50.1064 60.3065 50.9555 59.9635C51.8044 59.6205 52.7735 60.0378 53.1202 60.8961L54.9203 65.3513L61.5947 62.6547C61.9468 62.5124 62.3377 62.4967 62.7018 62.6101ZM97.6908 55.3451L86.7107 59.7813C85.3286 60.3397 83.7448 59.6574 83.1803 58.2603C82.6159 56.8633 83.2811 55.2721 84.6632 54.7136L95.6433 50.2774C97.0254 49.719 98.6094 50.4012 99.174 51.7985C99.7382 53.1956 99.0729 54.7866 97.6908 55.3451ZM94.388 47.1699L98.5584 45.4849C99.9406 44.9265 100.606 43.3355 100.042 41.9384C99.4772 40.5413 97.8934 39.859 96.5112 40.4174L81.3606 46.5387C79.9784 47.0971 79.3131 48.6881 79.8776 50.0852C80.442 51.4822 82.0258 52.1645 83.408 51.6061L94.388 47.1699Z" fill="black"/>
</svg>
