<svg width="24" height="24" viewBox="0 0 24 24" fill="none" xmlns="http://www.w3.org/2000/svg">
<path fill-rule="evenodd" clip-rule="evenodd" d="M6.75 9.10714C6.75 6.1359 9.11296 3.75 12 3.75C14.887 3.75 17.25 6.1359 17.25 9.10714V16.5H12.0066C12.0044 16.5 12.0022 16.5 12 16.5C11.9978 16.5 11.9956 16.5 11.9934 16.5H6.75V9.10714ZM9.87803 18H6C5.58579 18 5.25 17.6642 5.25 17.25V9.10714C5.25 5.33262 8.25962 2.25 12 2.25C15.7404 2.25 18.75 5.33262 18.75 9.10714V17.25C18.75 17.6642 18.4142 18 18 18H14.122C14.2049 18.2346 14.25 18.487 14.25 18.75C14.25 19.9926 13.2426 21 12 21C10.7574 21 9.75 19.9926 9.75 18.75C9.75 18.487 9.79511 18.2346 9.87803 18ZM11.9962 18C11.5837 18.0021 11.25 18.3371 11.25 18.75C11.25 19.1642 11.5858 19.5 12 19.5C12.4142 19.5 12.75 19.1642 12.75 18.75C12.75 18.3371 12.4163 18.0021 12.0038 18H11.9962Z" fill="black"/>
</svg>
